<?xml version="1.0" encoding="UTF-8"?>
<svg width="158px" height="35px" viewBox="0 0 158 35" version="1.1" xmlns="http://www.w3.org/2000/svg" xmlns:xlink="http://www.w3.org/1999/xlink">
    <!-- Generator: Sketch 51.2 (57519) - http://www.bohemiancoding.com/sketch -->
    <title>Group 36</title>
    <desc>Created with Sketch.</desc>
    <defs>
        <path d="M1.481,8.815 L4.871,7.944 C4.335,5.859 4.337,3.655 4.879,1.571 L1.49,0.691 C0.801,3.348 0.798,6.157 1.481,8.815" id="path-1"></path>
        <linearGradient x1="49.9945425%" y1="16.3817159%" x2="49.9945425%" y2="81.2974668%" id="linearGradient-3">
            <stop stop-color="#C86ED8" offset="0%"></stop>
            <stop stop-color="#FFAA21" offset="100%"></stop>
        </linearGradient>
        <path d="M1.77,1.006 L0.838,4.379 C2.255,4.771 3.71,4.966 5.165,4.966 C6.648,4.966 8.129,4.764 9.569,4.358 L8.62,0.989 C6.382,1.62 4.014,1.625 1.77,1.006" id="path-4"></path>
        <linearGradient x1="87.7284836%" y1="49.9975283%" x2="6.45969763%" y2="49.9975283%" id="linearGradient-6">
            <stop stop-color="#ACD84B" offset="0%"></stop>
            <stop stop-color="#FFAA21" offset="100%"></stop>
        </linearGradient>
        <path d="M0.452,1.58 C0.996,3.685 0.992,5.908 0.441,8.01 L3.826,8.898 C4.529,6.22 4.534,3.387 3.841,0.705 L0.452,1.58 Z" id="path-7"></path>
        <linearGradient x1="49.9923077%" y1="91.3402551%" x2="49.9923077%" y2="15.0556219%" id="linearGradient-9">
            <stop stop-color="#ACD84B" offset="0%"></stop>
            <stop stop-color="#4B93DB" offset="100%"></stop>
        </linearGradient>
        <path d="M0.161,1.079 L1.023,4.471 C3.121,3.937 5.335,3.949 7.425,4.503 L8.321,1.119 C6.963,0.759 5.564,0.58 4.164,0.58 C2.818,0.58 1.471,0.746 0.161,1.079" id="path-10"></path>
        <linearGradient x1="-0.00416911765%" y1="49.9864848%" x2="100.003729%" y2="49.9864848%" id="linearGradient-12">
            <stop stop-color="#C86ED8" offset="0%"></stop>
            <stop stop-color="#4B93DB" offset="100%"></stop>
        </linearGradient>
    </defs>
    <g id="Page-1" stroke="none" stroke-width="1" fill="none" fill-rule="evenodd">
        <g id="ilendu.co" transform="translate(-64.000000, -126.000000)">
            <g id="Group-36" transform="translate(64.000000, 126.000000)">
                <path d="M55.9521,13.9272 L63.7971,13.9272 C63.5841,11.9892 62.1001,10.3232 59.8901,10.3232 C57.5571,10.3232 56.1341,12.0492 55.9521,13.9272 M67.1891,15.3812 C67.1891,15.6842 67.1891,16.0772 67.1281,16.3802 L55.9211,16.3802 C55.9211,18.6522 57.9211,20.6212 60.2531,20.6212 C61.7371,20.6212 62.7371,20.0152 63.4941,18.9852 L66.9771,18.9852 C66.0081,21.1962 63.9181,23.2872 60.2531,23.2872 C55.8001,23.2872 52.5291,20.0152 52.5291,15.3812 C52.5291,11.2922 55.3161,7.7792 59.8901,7.7792 C64.8871,7.8092 67.1891,11.6862 67.1891,15.3812" id="Fill-3" fill="#414042"></path>
                <path d="M69.4639,8.2632 L72.8259,8.2632 L72.8259,10.0802 L72.8869,10.0802 C74.0379,8.4452 75.7029,7.7792 77.3089,7.7792 C80.3069,7.7792 82.9419,9.7472 82.9419,14.4112 L82.9419,22.7712 L79.5499,22.7712 L79.5499,14.5942 C79.5499,12.1102 78.3689,10.7772 76.4299,10.7772 C74.3099,10.7772 72.8569,12.2612 72.8569,15.0782 L72.8569,22.7712 L69.4639,22.7712 L69.4639,8.2632 Z" id="Fill-5" fill="#414042"></path>
                <path d="M92.7891,20.3184 C95.0911,20.3184 97.1201,18.3794 97.1201,15.5934 C97.1201,12.6554 95.2121,10.6864 92.8191,10.6864 C89.8811,10.6864 88.4271,13.1394 88.4271,15.5024 C88.4271,17.9254 89.8511,20.3184 92.7891,20.3184 Z M100.2691,22.7714 L96.9691,22.7714 L96.9691,21.0454 L96.8781,21.0454 C95.9081,22.1664 94.2421,23.2874 91.8501,23.2874 C88.5781,23.2874 84.9441,20.6814 84.9441,15.5024 C84.9441,10.9594 88.1241,7.7784 92.0311,7.7784 C94.4241,7.7784 95.7871,8.7784 96.8481,10.0804 L96.9381,10.0804 L96.9381,0.9644 L100.2691,0.9644 L100.2691,22.7714 Z" id="Fill-7" fill="#414042"></path>
                <path d="M116.4482,22.7715 L113.0862,22.7715 L113.0862,20.9845 L112.9952,20.9845 C111.7832,22.6805 110.2392,23.2555 108.6942,23.2555 C106.2402,23.2555 103.3022,21.7425 103.3022,16.8345 L103.3022,8.2635 L106.6952,8.2635 L106.6952,16.4405 C106.6952,18.8945 107.8762,20.2575 109.6632,20.2575 C111.7222,20.2575 113.0552,18.8035 113.0552,15.9865 L113.0552,8.2635 L116.4482,8.2635 L116.4482,22.7715 Z" id="Fill-9" fill="#414042"></path>
                <polygon id="Fill-11" fill="#414042" points="119.39 22.772 123.661 22.772 123.661 18.683 119.39 18.683"></polygon>
                <path d="M140.0176,12.625 L136.5346,12.625 C136.0796,11.474 134.9896,10.656 133.2926,10.656 C130.8396,10.656 129.0826,12.443 129.0826,15.502 C129.0826,18.258 130.7796,20.379 133.4146,20.379 C135.2916,20.379 136.2616,19.318 136.7466,18.198 L140.2596,18.198 C139.4726,20.833 137.3826,23.287 133.3546,23.287 C128.9926,23.287 125.6006,20.167 125.6006,15.472 C125.6006,11.231 128.5686,7.779 133.3236,7.779 C137.4736,7.779 139.5636,10.504 140.0176,12.625" id="Fill-13" fill="#414042"></path>
                <path d="M149.167,20.2578 C151.742,20.2578 153.499,18.1978 153.499,15.5018 C153.499,12.9278 151.863,10.7778 149.167,10.7778 C146.563,10.7778 144.866,12.8068 144.866,15.5018 C144.866,18.2888 146.835,20.2578 149.167,20.2578 M149.167,7.7788 C153.711,7.7788 156.921,11.1108 156.921,15.5018 C156.921,19.7738 153.681,23.2868 149.167,23.2868 C144.745,23.2868 141.413,19.8948 141.413,15.5018 C141.413,11.0198 144.775,7.7788 149.167,7.7788" id="Fill-14" fill="#414042"></path>
                <polygon id="Fill-15" fill="#414042" points="44.8564 33.6387 41.8354 29.4967 41.8354 33.6387 40.8184 33.6387 40.8184 27.8477 41.8604 27.8477 44.8214 31.8597 44.8214 27.8477 45.8374 27.8477 45.8374 33.6387"></polygon>
                <polygon id="Fill-16" fill="#414042" points="48.875 33.6387 48.875 27.8477 52.843 27.8477 52.843 28.7427 49.891 28.7427 49.891 30.2357 52.782 30.2357 52.782 31.1297 49.891 31.1297 49.891 32.7447 52.843 32.7447 52.843 33.6387"></polygon>
                <polygon id="Fill-17" fill="#414042" points="57.3657 33.6387 55.0917 27.8477 56.2457 27.8477 57.9997 32.5277 59.7537 27.8477 60.9077 27.8477 58.6337 33.6387"></polygon>
                <polygon id="Fill-18" fill="#414042" points="63.3379 33.6387 63.3379 27.8477 67.3059 27.8477 67.3059 28.7427 64.3539 28.7427 64.3539 30.2357 67.2449 30.2357 67.2449 31.1297 64.3539 31.1297 64.3539 32.7447 67.3059 32.7447 67.3059 33.6387"></polygon>
                <path d="M73.5566,29.6533 C73.5566,29.0973 73.1396,28.7423 72.5666,28.7423 L71.1686,28.7423 L71.1686,30.5833 L72.5666,30.5833 C73.1396,30.5833 73.5566,30.2173 73.5566,29.6533 Z M73.4606,33.6383 L72.1846,31.4763 L71.1686,31.4763 L71.1686,33.6383 L70.1526,33.6383 L70.1526,27.8473 L72.6966,27.8473 C73.8436,27.8473 74.5986,28.5863 74.5986,29.6623 C74.5986,30.6863 73.9216,31.2513 73.2176,31.3643 L74.6416,33.6383 L73.4606,33.6383 Z" id="Fill-19" fill="#414042"></path>
                <path d="M85.0322,31.9375 C85.0322,31.5025 84.7282,31.1295 84.1552,31.1295 L82.4792,31.1295 L82.4792,32.7455 L84.1552,32.7455 C84.7022,32.7455 85.0322,32.4405 85.0322,31.9375 Z M84.9202,29.4895 C84.9202,29.0635 84.6242,28.7425 84.1122,28.7425 L82.4792,28.7425 L82.4792,30.2355 L84.1122,30.2355 C84.6242,30.2355 84.9202,29.9315 84.9202,29.4895 Z M81.4642,33.6385 L81.4642,27.8475 L84.3112,27.8475 C85.3802,27.8475 85.9622,28.5075 85.9622,29.3245 C85.9622,30.0445 85.4922,30.5395 84.9542,30.6525 C85.5792,30.7485 86.0742,31.3645 86.0742,32.0675 C86.0742,32.9705 85.4842,33.6385 84.3892,33.6385 L81.4642,33.6385 Z" id="Fill-20" fill="#414042"></path>
                <path d="M88.9033,31.3467 L88.9033,27.8477 L89.9363,27.8477 L89.9363,31.3207 C89.9363,32.2417 90.4493,32.8397 91.4133,32.8397 C92.3763,32.8397 92.8883,32.2417 92.8883,31.3207 L92.8883,27.8477 L93.9223,27.8477 L93.9223,31.3467 C93.9223,32.7797 93.0963,33.7427 91.4133,33.7427 C89.7373,33.7427 88.9033,32.7797 88.9033,31.3467" id="Fill-21" fill="#414042"></path>
                <polygon id="Fill-22" fill="#414042" points="98.6094 33.6387 98.6094 31.2347 96.3614 27.8477 97.5244 27.8477 99.1134 30.3227 100.7024 27.8477 101.8654 27.8477 99.6264 31.2347 99.6264 33.6387"></polygon>
                <path d="M104.5918,34.7939 L104.1748,34.4549 C104.4518,34.2899 104.7478,33.9349 104.7998,33.6389 C104.7818,33.6479 104.7128,33.6649 104.6528,33.6649 C104.3648,33.6649 104.1398,33.4309 104.1398,33.1089 C104.1398,32.7879 104.4008,32.5189 104.7308,32.5189 C105.0858,32.5189 105.3988,32.8059 105.3988,33.3089 C105.3988,33.9079 105.0698,34.4549 104.5918,34.7939" id="Fill-23" fill="#414042"></path>
                <path d="M111.9004,32.8232 L112.4734,32.0322 C112.8644,32.4582 113.4984,32.8402 114.3054,32.8402 C115.1384,32.8402 115.4604,32.4312 115.4604,32.0412 C115.4604,30.8262 112.0914,31.5812 112.0914,29.4542 C112.0914,28.4902 112.9244,27.7522 114.2014,27.7522 C115.0954,27.7522 115.8334,28.0482 116.3634,28.5682 L115.7904,29.3242 C115.3304,28.8632 114.7134,28.6552 114.1054,28.6552 C113.5154,28.6552 113.1324,28.9502 113.1324,29.3762 C113.1324,30.4612 116.5024,29.7932 116.5024,31.9462 C116.5024,32.9092 115.8164,33.7432 114.2614,33.7432 C113.1944,33.7432 112.4214,33.3612 111.9004,32.8232" id="Fill-24" fill="#414042"></path>
                <polygon id="Fill-25" fill="#414042" points="123.2637 33.6387 123.2637 31.1037 120.2507 31.1037 120.2507 33.6387 119.2357 33.6387 119.2357 27.8477 120.2507 27.8477 120.2507 30.2087 123.2637 30.2087 123.2637 27.8477 124.2807 27.8477 124.2807 33.6387"></polygon>
                <path d="M129.6279,28.8633 L128.5859,31.6253 L130.6699,31.6253 L129.6279,28.8633 Z M131.3819,33.6383 L130.9559,32.5183 L128.2999,32.5183 L127.8739,33.6383 L126.7199,33.6383 L128.9939,27.8473 L130.2619,27.8473 L132.5359,33.6383 L131.3819,33.6383 Z" id="Fill-26" fill="#414042"></path>
                <path d="M138.3691,29.6533 C138.3691,29.0973 137.9531,28.7423 137.3801,28.7423 L135.9811,28.7423 L135.9811,30.5833 L137.3801,30.5833 C137.9531,30.5833 138.3691,30.2173 138.3691,29.6533 Z M138.2741,33.6383 L136.9981,31.4763 L135.9811,31.4763 L135.9811,33.6383 L134.9661,33.6383 L134.9661,27.8473 L137.5101,27.8473 C138.6561,27.8473 139.4111,28.5863 139.4111,29.6623 C139.4111,30.6863 138.7341,31.2513 138.0311,31.3643 L139.4551,33.6383 L138.2741,33.6383 Z" id="Fill-27" fill="#414042"></path>
                <polygon id="Fill-28" fill="#414042" points="142.2324 33.6387 142.2324 27.8477 146.2004 27.8477 146.2004 28.7427 143.2484 28.7427 143.2484 30.2357 146.1394 30.2357 146.1394 31.1297 143.2484 31.1297 143.2484 32.7447 146.2004 32.7447 146.2004 33.6387"></polygon>
                <path d="M148.8906,33.1182 C148.8906,32.7972 149.1686,32.5182 149.4986,32.5182 C149.8276,32.5182 150.1066,32.7972 150.1066,33.1182 C150.1066,33.4482 149.8276,33.7342 149.4986,33.7342 C149.1686,33.7342 148.8906,33.4482 148.8906,33.1182" id="Fill-29" fill="#414042"></path>
                <path d="M152.832,33.1182 C152.832,32.7972 153.11,32.5182 153.44,32.5182 C153.769,32.5182 154.048,32.7972 154.048,33.1182 C154.048,33.4482 153.769,33.7342 153.44,33.7342 C153.11,33.7342 152.832,33.4482 152.832,33.1182" id="Fill-30" fill="#414042"></path>
                <path d="M156.7734,33.1182 C156.7734,32.7972 157.0514,32.5182 157.3814,32.5182 C157.7104,32.5182 157.9894,32.7972 157.9894,33.1182 C157.9894,33.4482 157.7104,33.7342 157.3814,33.7342 C157.0514,33.7342 156.7734,33.4482 156.7734,33.1182" id="Fill-31" fill="#414042"></path>
                <path d="M9.084,9.6918 C7.944,10.8308 5.957,10.8298 4.818,9.6918 C4.249,9.1218 3.935,8.3648 3.935,7.5588 C3.935,6.7528 4.249,5.9958 4.818,5.4258 C5.388,4.8568 6.145,4.5428 6.951,4.5428 C7.757,4.5428 8.514,4.8568 9.084,5.4258 C10.26,6.6018 10.26,8.5158 9.084,9.6918 M11.272,2.6908 C10.079,1.6288 8.561,1.0428 6.951,1.0428 C5.21,1.0428 3.574,1.7198 2.343,2.9508 C-0.106,5.3998 -0.187,9.3238 2.084,11.8798 C1.853,12.4708 1.651,13.0738 1.491,13.6918 L4.878,14.5698 C4.945,14.3128 5.047,14.0668 5.129,13.8148 C5.714,13.9838 6.325,14.0748 6.951,14.0748 C8.691,14.0748 10.328,13.3978 11.559,12.1668 C13.296,10.4288 13.844,7.9468 13.205,5.7388 C13.478,5.6488 13.744,5.5418 14.023,5.4708 L13.161,2.0788 C12.517,2.2418 11.887,2.4498 11.272,2.6908" id="Fill-32" fill="#C96FD8"></path>
                <path d="M29.5103,30.1185 C28.3703,31.2575 26.3833,31.2575 25.2443,30.1185 C24.0683,28.9415 24.0683,27.0275 25.2443,25.8515 C25.8143,25.2825 26.5713,24.9685 27.3773,24.9685 C28.1833,24.9685 28.9403,25.2825 29.5103,25.8515 C30.6863,27.0275 30.6863,28.9415 29.5103,30.1185 M32.8253,21.8975 L29.4403,21.0095 C29.3753,21.2545 29.2783,21.4885 29.1993,21.7285 C28.6143,21.5595 28.0033,21.4685 27.3773,21.4685 C25.6363,21.4685 24.0003,22.1465 22.7693,23.3775 C21.0313,25.1155 20.4833,27.6005 21.1243,29.8105 C20.9553,29.8665 20.7913,29.9405 20.6193,29.9885 L21.5693,33.3575 C22.0733,33.2155 22.5663,33.0415 23.0533,32.8505 C24.2473,33.9135 25.7653,34.5025 27.3773,34.5025 C29.1173,34.5025 30.7543,33.8235 31.9853,32.5935 C34.4333,30.1435 34.5153,26.2185 32.2433,23.6635 C32.4693,23.0875 32.6683,22.4995 32.8253,21.8975" id="Fill-33" fill="#ACD84C"></path>
                <path d="M27.3775,4.5424 C28.1835,4.5424 28.9405,4.8564 29.5105,5.4254 C30.0795,5.9954 30.3935,6.7524 30.3935,7.5594 C30.3935,8.3644 30.0795,9.1224 29.5105,9.6914 C28.3705,10.8314 26.3835,10.8304 25.2445,9.6914 C24.0685,8.5154 24.0685,6.6024 25.2445,5.4254 C25.8145,4.8564 26.5715,4.5424 27.3775,4.5424 M22.7695,12.1664 C24.0005,13.3974 25.6365,14.0754 27.3775,14.0754 C28.0025,14.0754 28.6135,13.9844 29.1985,13.8154 C29.2825,14.0714 29.3855,14.3204 29.4525,14.5814 L32.8415,13.7044 C32.6805,13.0824 32.4775,12.4754 32.2445,11.8794 C34.5155,9.3234 34.4335,5.3994 31.9845,2.9514 C30.7545,1.7204 29.1175,1.0424 27.3775,1.0424 C25.7665,1.0424 24.2485,1.6294 23.0545,2.6924 C22.4885,2.4714 21.9115,2.2744 21.3215,2.1184 L20.4255,5.5024 C20.6635,5.5654 20.8905,5.6604 21.1235,5.7374 C20.4845,7.9464 21.0315,10.4284 22.7695,12.1664" id="Fill-34" fill="#4B93DB"></path>
                <path d="M4.8184,30.1185 C3.6424,28.9415 3.6424,27.0275 4.8184,25.8515 C5.3874,25.2825 6.1454,24.9685 6.9514,24.9685 C7.7564,24.9685 8.5144,25.2825 9.0844,25.8515 C10.2594,27.0275 10.2594,28.9415 9.0844,30.1185 C7.9434,31.2575 5.9564,31.2575 4.8184,30.1185 M11.5584,23.3775 C10.3284,22.1465 8.6914,21.4685 6.9514,21.4685 C6.3254,21.4685 5.7144,21.5595 5.1294,21.7285 C5.0434,21.4665 4.9394,21.2115 4.8704,20.9435 L1.4814,21.8145 C1.6424,22.4455 1.8474,23.0615 2.0834,23.6645 C-0.1866,26.2195 -0.1046,30.1435 2.3434,32.5935 C3.5734,33.8235 5.2104,34.5025 6.9514,34.5025 C8.5624,34.5025 10.0814,33.9135 11.2754,32.8505 C11.7874,33.0505 12.3074,33.2325 12.8384,33.3795 L13.7704,30.0065 C13.5774,29.9525 13.3944,29.8715 13.2044,29.8095 C13.8444,27.5995 13.2974,25.1155 11.5584,23.3775" id="Fill-35" fill="#FFAA22"></path>
                <path d="M40.381,22.771 L43.774,22.771 L43.774,8.263 L40.381,8.263 L40.381,22.771 Z M40.2,5.053 L43.956,5.053 L43.956,1.6 L40.2,1.6 L40.2,5.053 Z" id="Fill-1" fill="#414042"></path>
                <polygon id="Fill-2" fill="#414042" points="46.955 22.772 50.348 22.772 50.348 0.964 46.955 0.964"></polygon>
                <g id="Group-39" transform="translate(0.000000, 13.000000)">
                    <mask id="mask-2" fill="white">
                        <use xlink:href="#path-1"></use>
                    </mask>
                    <g id="Clip-38"></g>
                    <path d="M1.481,8.815 L4.871,7.944 C4.335,5.859 4.337,3.655 4.879,1.571 L1.49,0.691 C0.801,3.348 0.798,6.157 1.481,8.815" id="Fill-37" fill="url(#linearGradient-3)" mask="url(#mask-2)"></path>
                </g>
                <g id="Group-42" transform="translate(12.000000, 29.000000)">
                    <mask id="mask-5" fill="white">
                        <use xlink:href="#path-4"></use>
                    </mask>
                    <g id="Clip-41"></g>
                    <path d="M1.77,1.006 L0.838,4.379 C2.255,4.771 3.71,4.966 5.165,4.966 C6.648,4.966 8.129,4.764 9.569,4.358 L8.62,0.989 C6.382,1.62 4.014,1.625 1.77,1.006" id="Fill-40" fill="url(#linearGradient-6)" mask="url(#mask-5)"></path>
                </g>
                <g id="Group-45" transform="translate(29.000000, 13.000000)">
                    <mask id="mask-8" fill="white">
                        <use xlink:href="#path-7"></use>
                    </mask>
                    <g id="Clip-44"></g>
                    <path d="M0.452,1.58 C0.996,3.685 0.992,5.908 0.441,8.01 L3.826,8.898 C4.529,6.22 4.534,3.387 3.841,0.705 L0.452,1.58 Z" id="Fill-43" fill="url(#linearGradient-9)" mask="url(#mask-8)"></path>
                </g>
                <g id="Group-48" transform="translate(13.000000, 1.000000)">
                    <mask id="mask-11" fill="white">
                        <use xlink:href="#path-10"></use>
                    </mask>
                    <g id="Clip-47"></g>
                    <path d="M0.161,1.079 L1.023,4.471 C3.121,3.937 5.335,3.949 7.425,4.503 L8.321,1.119 C6.963,0.759 5.564,0.58 4.164,0.58 C2.818,0.58 1.471,0.746 0.161,1.079" id="Fill-46" fill="url(#linearGradient-12)" mask="url(#mask-11)"></path>
                </g>
            </g>
        </g>
    </g>
</svg>